{
  "__inputs": [
    {
      "name": "DS_GRAPHITE",
      "label": "graphite",
      "description": "",
      "type": "datasource",
      "pluginId": "graphite",
      "pluginName": "Graphite"
    }
  ],
  "__elements": [],
  "__requires": [
    {
      "type": "panel",
      "id": "dashlist",
      "name": "Dashboard list",
      "version": ""
    },
    {
      "type": "grafana",
      "id": "grafana",
      "name": "Grafana",
      "version": "8.5.2"
    },
    {
      "type": "panel",
      "id": "graph",
      "name": "Graph (old)",
      "version": ""
    },
    {
      "type": "datasource",
      "id": "graphite",
      "name": "Graphite",
      "version": "1.0.0"
    },
    {
      "type": "panel",
      "id": "timeseries",
      "name": "Time series",
      "version": ""
    }
  ],
  "annotations": {
    "enable": false,
    "list": [
      {
        "builtIn": 1,
        "datasource": {
          "type": "datasource",
          "uid": "grafana"
        },
        "enable": true,
        "hide": true,
        "iconColor": "rgba(0, 211, 255, 1)",
        "name": "Annotations & Alerts",
        "target": {
          "limit": 100,
          "matchAny": false,
          "tags": [],
          "type": "dashboard"
        },
        "type": "dashboard"
      }
    ]
  },
  "editable": true,
  "fiscalYearStartMonth": 0,
  "graphTooltip": 0,
  "id": null,
  "links": [
    {
      "icon": "external link",
      "tags": [],
      "targetBlank": true,
      "title": "Learn more at Grafana.com",
      "tooltip": "",
      "type": "link",
      "url": "https://grafana.com?pg=play&plcmt=home"
    },
    {
      "icon": "cloud",
      "tags": [],
      "targetBlank": true,
      "title": "Grafana Cloud now free with 50gb logs, 10K metric series",
      "tooltip": "",
      "type": "link",
      "url": "https://grafana.com/signup/cloud/connect-account?pg=play&plcmt=home"
    }
  ],
  "liveNow": false,
  "panels": [
    {
      "datasource": {
        "type": "graphite",
        "uid": "${DS_GRAPHITE}"
      },
      "editable": true,
      "error": false,
      "gridPos": {
        "h": 11,
        "w": 8,
        "x": 0,
        "y": 0
      },
      "id": 7,
      "links": [],
      "options": {
        "maxItems": 100,
        "query": "",
        "showHeadings": false,
        "showRecentlyViewed": false,
        "showSearch": true,
        "showStarred": false,
        "tags": [
          "demo"
        ]
      },
      "pluginVersion": "8.5.2",
      "tags": [
        "demo"
      ],
      "title": "Feature showcases",
      "type": "dashlist"
    },
    {
      "datasource": {
        "type": "graphite",
        "uid": "${DS_GRAPHITE}"
      },
      "editable": true,
      "error": false,
      "gridPos": {
        "h": 11,
        "w": 8,
        "x": 8,
        "y": 0
      },
      "id": 9,
      "links": [],
      "options": {
        "maxItems": 10,
        "query": "",
        "showHeadings": false,
        "showRecentlyViewed": false,
        "showSearch": true,
        "showStarred": false,
        "tags": [
          "misc"
        ]
      },
      "pluginVersion": "8.5.2",
      "tags": [
        "misc"
      ],
      "title": "Data source demos",
      "type": "dashlist"
    },
    {
      "datasource": {
        "type": "graphite",
        "uid": "${DS_GRAPHITE}"
      },
      "editable": true,
      "error": false,
      "gridPos": {
        "h": 11,
        "w": 8,
        "x": 16,
        "y": 0
      },
      "id": 8,
      "links": [],
      "options": {
        "maxItems": 10,
        "query": "",
        "showHeadings": false,
        "showRecentlyViewed": false,
        "showSearch": true,
        "showStarred": false,
        "tags": [
          "whatsnew"
        ]
      },
      "pluginVersion": "8.5.2",
      "tags": [
        "whatsnew"
      ],
      "title": "What's New",
      "type": "dashlist"
    },
    {
      "datasource": {
        "type": "graphite",
        "uid": "${DS_GRAPHITE}"
      },
      "fieldConfig": {
        "defaults": {
          "color": {
            "mode": "palette-classic"
          },
          "custom": {
            "axisLabel": "",
            "axisPlacement": "auto",
            "barAlignment": 0,
            "drawStyle": "line",
            "fillOpacity": 61,
            "gradientMode": "none",
            "hideFrom": {
              "legend": false,
              "tooltip": false,
              "viz": false
            },
            "lineInterpolation": "linear",
            "lineWidth": 1,
            "pointSize": 5,
            "scaleDistribution": {
              "type": "linear"
            },
            "showPoints": "never",
            "spanNulls": false,
            "stacking": {
              "group": "A",
              "mode": "normal"
            },
            "thresholdsStyle": {
              "mode": "off"
            }
          },
          "mappings": [],
          "thresholds": {
            "mode": "absolute",
            "steps": [
              {
                "color": "green",
                "value": null
              },
              {
                "color": "red",
                "value": 80
              }
            ]
          },
          "unit": "short"
        },
        "overrides": [
          {
            "matcher": {
              "id": "byName",
              "options": "web_server_01"
            },
            "properties": [
              {
                "id": "color",
                "value": {
                  "fixedColor": "#70dbed",
                  "mode": "fixed"
                }
              }
            ]
          },
          {
            "matcher": {
              "id": "byName",
              "options": "web_server_02"
            },
            "properties": [
              {
                "id": "color",
                "value": {
                  "fixedColor": "#5195ce",
                  "mode": "fixed"
                }
              }
            ]
          },
          {
            "matcher": {
              "id": "byName",
              "options": "web_server_03"
            },
            "properties": [
              {
                "id": "color",
                "value": {
                  "fixedColor": "#0a50a1",
                  "mode": "fixed"
                }
              }
            ]
          },
          {
            "matcher": {
              "id": "byName",
              "options": "web_server_04"
            },
            "properties": [
              {
                "id": "color",
                "value": {
                  "fixedColor": "#0a437c",
                  "mode": "fixed"
                }
              }
            ]
          }
        ]
      },
      "gridPos": {
        "h": 7,
        "w": 16,
        "x": 0,
        "y": 11
      },
      "id": 2,
      "options": {
        "legend": {
          "calcs": [],
          "displayMode": "list",
          "placement": "bottom"
        },
        "tooltip": {
          "mode": "multi",
          "sort": "desc"
        }
      },
      "pluginVersion": "8.0.0-beta3",
      "targets": [
        {
          "refId": "A",
          "target": "aliasByNode(movingAverage(scaleToSeconds(apps.fakesite.*.counters.requests.count, 1), 2), 2)",
          "datasource": "${DS_GRAPHITE}"
        }
      ],
      "title": "server requests",
      "type": "timeseries"
    },
    {
      "datasource": {
        "type": "graphite",
        "uid": "${DS_GRAPHITE}"
      },
      "fieldConfig": {
        "defaults": {
          "color": {
            "mode": "palette-classic"
          },
          "custom": {
            "axisLabel": "",
            "axisPlacement": "auto",
            "barAlignment": 0,
            "drawStyle": "line",
            "fillOpacity": 54,
            "gradientMode": "hue",
            "hideFrom": {
              "legend": false,
              "tooltip": false,
              "viz": false
            },
            "lineInterpolation": "linear",
            "lineWidth": 0,
            "pointSize": 5,
            "scaleDistribution": {
              "type": "linear"
            },
            "showPoints": "never",
            "spanNulls": true,
            "stacking": {
              "group": "A",
              "mode": "none"
            },
            "thresholdsStyle": {
              "mode": "off"
            }
          },
          "mappings": [],
          "thresholds": {
            "mode": "absolute",
            "steps": [
              {
                "color": "green",
                "value": null
              },
              {
                "color": "red",
                "value": 80
              }
            ]
          },
          "unit": "bytes"
        },
        "overrides": [
          {
            "matcher": {
              "id": "byName",
              "options": "cpu"
            },
            "properties": [
              {
                "id": "color",
                "value": {
                  "fixedColor": "#E24D42",
                  "mode": "fixed"
                }
              }
            ]
          },
          {
            "matcher": {
              "id": "byName",
              "options": "memory"
            },
            "properties": [
              {
                "id": "color",
                "value": {
                  "fixedColor": "purple",
                  "mode": "fixed"
                }
              }
            ]
          },
          {
            "matcher": {
              "id": "byName",
              "options": "statsd.fakesite.counters.session_start.desktop.count"
            },
            "properties": [
              {
                "id": "color",
                "value": {
                  "fixedColor": "#6ED0E0",
                  "mode": "fixed"
                }
              }
            ]
          },
          {
            "matcher": {
              "id": "byName",
              "options": "cpu"
            },
            "properties": [
              {
                "id": "custom.fillOpacity",
                "value": 0
              },
              {
                "id": "custom.lineWidth",
                "value": 2
              },
              {
                "id": "unit",
                "value": "percent"
              },
              {
                "id": "min",
                "value": 0
              }
            ]
          },
          {
            "matcher": {
              "id": "byName",
              "options": "memory"
            },
            "properties": [
              {
                "id": "custom.pointSize",
                "value": 6
              },
              {
                "id": "custom.showPoints",
                "value": "always"
              }
            ]
          }
        ]
      },
      "gridPos": {
        "h": 7,
        "w": 8,
        "x": 16,
        "y": 11
      },
      "id": 4,
      "options": {
        "legend": {
          "calcs": [],
          "displayMode": "list",
          "placement": "bottom"
        },
        "tooltip": {
          "mode": "single",
          "sort": "none"
        }
      },
      "pluginVersion": "8.0.0",
      "targets": [
        {
          "hide": false,
          "refId": "A",
          "target": "alias(movingAverage(scaleToSeconds(apps.fakesite.web_server_01.counters.request_status.code_302.count, 10), 20), 'cpu')",
          "datasource": "${DS_GRAPHITE}"
        },
        {
          "refId": "B",
          "target": "alias(statsd.fakesite.counters.session_start.desktop.count, 'memory')",
          "datasource": "${DS_GRAPHITE}"
        }
      ],
      "title": "Memory / CPU",
      "type": "timeseries"
    },
    {
      "datasource": {
        "type": "graphite",
        "uid": "${DS_GRAPHITE}"
      },
      "description": "",
      "fieldConfig": {
        "defaults": {
          "color": {
            "mode": "palette-classic"
          },
          "custom": {
            "axisLabel": "",
            "axisPlacement": "auto",
            "barAlignment": 0,
            "drawStyle": "bars",
            "fillOpacity": 91,
            "gradientMode": "none",
            "hideFrom": {
              "legend": false,
              "tooltip": false,
              "viz": false
            },
            "lineInterpolation": "linear",
            "lineWidth": 1,
            "pointSize": 5,
            "scaleDistribution": {
              "type": "linear"
            },
            "showPoints": "never",
            "spanNulls": false,
            "stacking": {
              "group": "A",
              "mode": "normal"
            },
            "thresholdsStyle": {
              "mode": "off"
            }
          },
          "mappings": [],
          "thresholds": {
            "mode": "absolute",
            "steps": [
              {
                "color": "green",
                "value": null
              },
              {
                "color": "red",
                "value": 80
              }
            ]
          },
          "unit": "ms"
        },
        "overrides": [
          {
            "matcher": {
              "id": "byName",
              "options": "upper_25"
            },
            "properties": [
              {
                "id": "color",
                "value": {
                  "fixedColor": "#F9E2D2",
                  "mode": "fixed"
                }
              }
            ]
          },
          {
            "matcher": {
              "id": "byName",
              "options": "upper_50"
            },
            "properties": [
              {
                "id": "color",
                "value": {
                  "fixedColor": "#F2C96D",
                  "mode": "fixed"
                }
              }
            ]
          },
          {
            "matcher": {
              "id": "byName",
              "options": "upper_75"
            },
            "properties": [
              {
                "id": "color",
                "value": {
                  "fixedColor": "#EAB839",
                  "mode": "fixed"
                }
              }
            ]
          }
        ]
      },
      "gridPos": {
        "h": 7,
        "w": 16,
        "x": 0,
        "y": 18
      },
      "id": 5,
      "links": [],
      "options": {
        "legend": {
          "calcs": [
            "mean"
          ],
          "displayMode": "table",
          "placement": "right"
        },
        "tooltip": {
          "mode": "single",
          "sort": "none"
        }
      },
      "pluginVersion": "8.0.0-beta3",
      "targets": [
        {
          "refId": "A",
          "target": "aliasByNode(summarize(statsd.fakesite.timers.ads_timer.*, '4min', 'avg'), 4)",
          "datasource": "${DS_GRAPHITE}"
        }
      ],
      "title": "client side full page load",
      "type": "timeseries"
    },
    {
      "datasource": {
        "type": "graphite",
        "uid": "${DS_GRAPHITE}"
      },
      "fieldConfig": {
        "defaults": {
          "color": {
            "mode": "palette-classic"
          },
          "custom": {
            "axisLabel": "",
            "axisPlacement": "auto",
            "barAlignment": 0,
            "drawStyle": "line",
            "fillOpacity": 41,
            "gradientMode": "hue",
            "hideFrom": {
              "legend": false,
              "tooltip": false,
              "viz": false
            },
            "lineInterpolation": "smooth",
            "lineWidth": 1,
            "pointSize": 5,
            "scaleDistribution": {
              "type": "linear"
            },
            "showPoints": "never",
            "spanNulls": false,
            "stacking": {
              "group": "A",
              "mode": "normal"
            },
            "thresholdsStyle": {
              "mode": "off"
            }
          },
          "mappings": [],
          "thresholds": {
            "mode": "absolute",
            "steps": [
              {
                "color": "green",
                "value": null
              },
              {
                "color": "red",
                "value": 80
              }
            ]
          },
          "unit": "short"
        },
        "overrides": [
          {
            "matcher": {
              "id": "byName",
              "options": "logins"
            },
            "properties": [
              {
                "id": "color",
                "value": {
                  "fixedColor": "#5195ce",
                  "mode": "fixed"
                }
              }
            ]
          },
          {
            "matcher": {
              "id": "byName",
              "options": "logins (-1 day)"
            },
            "properties": [
              {
                "id": "color",
                "value": {
                  "fixedColor": "#447EBC",
                  "mode": "fixed"
                }
              }
            ]
          },
          {
            "matcher": {
              "id": "byName",
              "options": "logins (-1 hour)"
            },
            "properties": [
              {
                "id": "color",
                "value": {
                  "fixedColor": "#e24d42",
                  "mode": "fixed"
                }
              }
            ]
          }
        ]
      },
      "gridPos": {
        "h": 7,
        "w": 8,
        "x": 16,
        "y": 18
      },
      "id": 3,
      "options": {
        "legend": {
          "calcs": [],
          "displayMode": "list",
          "placement": "bottom"
        },
        "tooltip": {
          "mode": "single",
          "sort": "none"
        }
      },
      "pluginVersion": "8.0.0-beta3",
      "targets": [
        {
          "refId": "A",
          "target": "alias(movingAverage(scaleToSeconds(apps.fakesite.web_server_01.counters.requests.count, 1), 2), 'logins')",
          "datasource": "${DS_GRAPHITE}"
        },
        {
          "refId": "B",
          "target": "alias(movingAverage(timeShift(scaleToSeconds(apps.fakesite.web_server_01.counters.requests.count, 1), '1h'), 2), 'logins (-1 hour)')",
          "datasource": "${DS_GRAPHITE}"
        }
      ],
      "title": "logins",
      "type": "timeseries"
    },
    {
      "aliasColors": {
        "cpu1": "#82b5d8",
        "cpu2": "#1f78c1",
        "upper_25": "#B7DBAB",
        "upper_50": "#7EB26D",
        "upper_75": "#629E51",
        "upper_90": "#629E51",
        "upper_95": "#508642"
      },
      "annotate": {
        "enable": false
      },
      "bars": false,
      "dashLength": 10,
      "dashes": false,
      "datasource": {
        "type": "graphite",
        "uid": "${DS_GRAPHITE}"
      },
      "editable": true,
      "fieldConfig": {
        "defaults": {
          "links": []
        },
        "overrides": []
      },
      "fill": 3,
      "fillGradient": 0,
      "grid": {},
      "gridPos": {
        "h": 7,
        "w": 24,
        "x": 0,
        "y": 25
      },
      "hiddenSeries": false,
      "id": 11,
      "interactive": true,
      "legend": {
        "alignAsTable": true,
        "avg": true,
        "current": true,
        "legendSideLastValue": true,
        "max": false,
        "min": false,
        "rightSide": true,
        "show": true,
        "total": false,
        "values": true
      },
      "legend_counts": true,
      "lines": true,
      "linewidth": 2,
      "links": [],
      "nullPointMode": "connected",
      "options": {
        "alertThreshold": true
      },
      "paceLength": 10,
      "percentage": false,
      "pluginVersion": "8.5.2",
      "pointradius": 1,
      "points": false,
      "renderer": "flot",
      "resolution": 100,
      "scale": 1,
      "seriesOverrides": [
        {
          "alias": "this is  test of brekaing",
          "yaxis": 1
        }
      ],
      "spaceLength": 10,
      "spyable": true,
      "stack": false,
      "steppedLine": false,
      "targets": [
        {
          "refId": "A",
          "target": "aliasByNode(statsd.fakesite.timers.ads_timer.*,4)",
          "datasource": "${DS_GRAPHITE}"
        },
        {
          "refId": "B",
          "target": "alias(scale(statsd.fakesite.timers.ads_timer.upper_95,-1),'cpu1')",
          "datasource": "${DS_GRAPHITE}"
        },
        {
          "refId": "C",
          "target": "alias(scale(statsd.fakesite.timers.ads_timer.upper_75,-1),'cpu2')",
          "datasource": "${DS_GRAPHITE}"
        }
      ],
      "thresholds": [],
      "timeRegions": [],
      "timezone": "browser",
      "title": "Traffic In/Out",
      "tooltip": {
        "query_as_alias": true,
        "shared": true,
        "sort": 0,
        "value_type": "cumulative"
      },
      "type": "graph",
      "xaxis": {
        "mode": "time",
        "show": true,
        "values": []
      },
      "yaxes": [
        {
          "format": "decbytes",
          "logBase": 1,
          "show": true
        },
        {
          "format": "short",
          "logBase": 1,
          "show": false
        }
      ],
      "yaxis": {
        "align": false
      },
      "zerofill": true
    }
  ],
  "refresh": "",
  "schemaVersion": 36,
  "style": "dark",
  "tags": [
    "startpage",
    "home",
    "Home"
  ],
  "templating": {
    "list": []
  },
  "time": {
    "from": "now-1h",
    "to": "now"
  },
  "timepicker": {
    "collapse": false,
    "enable": true,
    "notice": false,
    "now": true,
    "refresh_intervals": [
      "5s",
      "10s",
      "30s",
      "1m",
      "5m",
      "15m",
      "30m",
      "1h",
      "2h",
      "1d"
    ],
    "status": "Stable",
    "time_options": [
      "5m",
      "15m",
      "1h",
      "2h",
      " 6h",
      "12h",
      "24h",
      "2d",
      "7d",
      "30d"
    ],
    "type": "timepicker"
  },
  "timezone": "browser",
  "title": "Grafana Play Home",
  "uid": "000000012",
  "version": 40,
  "weekStart": ""
}